# Fdb version 3
["makeindex icarogw.idx"] 1617297532 "icarogw.idx" "icarogw.ind" "icarogw" 1617297534
  "icarogw.idx" 1617297534 20156 52fdcebedc69690d8e7fc8bcd6a05734 "pdflatex"
  (generated)
  "icarogw.ind"
  "icarogw.ilg"
["pdflatex"] 1617297533 "icarogw.tex" "icarogw.pdf" "icarogw" 1617297534
  "/home/simone/.miktex/texmfs/data/miktex/data/le/pdftex/pdflatex.fmt" 1616779055 9520161 517928d6023f89b5ef5aec9a4e9c3b0d ""
  "/home/simone/.miktex/texmfs/data/pdftex/config/pdftex.map" 1617296543 82507 a9eef8696c92627b87e9975edea03b2a ""
  "/home/simone/.miktex/texmfs/install/fonts/enc/dvips/base/8r.enc" 1616779006 4993 1194fb36dfcb11d9ae9802f2b00b60a3 ""
  "/home/simone/.miktex/texmfs/install/fonts/tfm/adobe/courier/pcrb8r.tfm" 1616779005 1292 3059476c50a24578715759f22652f3d0 ""
  "/home/simone/.miktex/texmfs/install/fonts/tfm/adobe/courier/pcrb8t.tfm" 1616779005 1384 87406e4336af44af883a035f17f319d9 ""
  "/home/simone/.miktex/texmfs/install/fonts/tfm/adobe/courier/pcrr8r.tfm" 1616779005 1292 bd42be2f344128bff6d35d98474adfe3 ""
  "/home/simone/.miktex/texmfs/install/fonts/tfm/adobe/courier/pcrr8t.tfm" 1616779005 1384 4632f5e54900a7dadbb83f555bc61e56 ""
  "/home/simone/.miktex/texmfs/install/fonts/tfm/adobe/courier/pcrro8r.tfm" 1616779005 1544 4fb84cf2931ec523c2c6a08d939088ba ""
  "/home/simone/.miktex/texmfs/install/fonts/tfm/adobe/courier/pcrro8t.tfm" 1616779005 1596 04a657f277f0401ba37d66e716627ac4 ""
  "/home/simone/.miktex/texmfs/install/fonts/tfm/adobe/helvetic/phvb8r.tfm" 1136768654 4484 b828043cbd581d289d955903c1339981 ""
  "/home/simone/.miktex/texmfs/install/fonts/tfm/adobe/helvetic/phvb8t.tfm" 1136768654 6628 34c39492c0adc454c1c199922bba8363 ""
  "/home/simone/.miktex/texmfs/install/fonts/tfm/adobe/helvetic/phvbo8r.tfm" 1136768654 4736 423eba67d4e9420ec9df4a8def143b08 ""
  "/home/simone/.miktex/texmfs/install/fonts/tfm/adobe/helvetic/phvbo8t.tfm" 1136768654 6880 fe6c7967f27585f6fa9876f3af14edd2 ""
  "/home/simone/.miktex/texmfs/install/fonts/tfm/adobe/helvetic/phvr8r.tfm" 1136768654 4712 9ef4d7d106579d4b136e1529e1a4533c ""
  "/home/simone/.miktex/texmfs/install/fonts/tfm/adobe/helvetic/phvr8t.tfm" 1136768654 7040 b2bd27e2bfe6f6948cbc3239cae7444f ""
  "/home/simone/.miktex/texmfs/install/fonts/tfm/adobe/times/ptmb8r.tfm" 1136768654 4524 6bce29db5bc272ba5f332261583fee9c ""
  "/home/simone/.miktex/texmfs/install/fonts/tfm/adobe/times/ptmb8t.tfm" 1136768654 6880 f19b8995b61c334d78fc734065f6b4d4 ""
  "/home/simone/.miktex/texmfs/install/fonts/tfm/adobe/times/ptmr8c.tfm" 1136768654 1352 fa28a7e6d323c65ce7d13d5342ff6be2 ""
  "/home/simone/.miktex/texmfs/install/fonts/tfm/adobe/times/ptmr8r.tfm" 1136768654 4408 25b74d011a4c66b7f212c0cc3c90061b ""
  "/home/simone/.miktex/texmfs/install/fonts/tfm/adobe/times/ptmr8t.tfm" 1136768654 6672 e3ab9e37e925f3045c9005e6d1473d56 ""
  "/home/simone/.miktex/texmfs/install/fonts/tfm/adobe/times/ptmri8c.tfm" 1136768654 1428 3f135d3346fb7bfe71989ef2e19a9f01 ""
  "/home/simone/.miktex/texmfs/install/fonts/tfm/adobe/times/ptmri8r.tfm" 1136768654 4640 532ca3305aad10cc01d769f3f91f1029 ""
  "/home/simone/.miktex/texmfs/install/fonts/tfm/adobe/times/ptmri8t.tfm" 1136768654 6944 94c55ad86e6ea2826f78ba2240d50df9 ""
  "/home/simone/.miktex/texmfs/install/fonts/tfm/jknappen/ec/ecrm1000.tfm" 1616779006 3148 7e594c8240c71e432203f65ab5f95a51 ""
  "/home/simone/.miktex/texmfs/install/fonts/tfm/public/amsfonts/cmextra/cmex7.tfm" 1616778995 1004 54797486969f23fa377b128694d548df ""
  "/home/simone/.miktex/texmfs/install/fonts/tfm/public/amsfonts/symbols/msam10.tfm" 1616778995 916 f87d7c45f9c908e672703b83b72241a3 ""
  "/home/simone/.miktex/texmfs/install/fonts/tfm/public/amsfonts/symbols/msam5.tfm" 1616778995 924 9904cf1d39e9767e7a3622f2a125a565 ""
  "/home/simone/.miktex/texmfs/install/fonts/tfm/public/amsfonts/symbols/msam7.tfm" 1616778995 928 2dc8d444221b7a635bb58038579b861a ""
  "/home/simone/.miktex/texmfs/install/fonts/tfm/public/amsfonts/symbols/msbm10.tfm" 1616778995 908 2921f8a10601f252058503cc6570e581 ""
  "/home/simone/.miktex/texmfs/install/fonts/tfm/public/amsfonts/symbols/msbm5.tfm" 1616778995 940 75ac932a52f80982a9f8ea75d03a34cf ""
  "/home/simone/.miktex/texmfs/install/fonts/tfm/public/amsfonts/symbols/msbm7.tfm" 1616778995 940 228d6584342e91276bf566bcf9716b83 ""
  "/home/simone/.miktex/texmfs/install/fonts/tfm/public/cm/cmex10.tfm" 1616779005 992 662f679a0b3d2d53c1b94050fdaa3f50 ""
  "/home/simone/.miktex/texmfs/install/fonts/tfm/public/cm/cmmi12.tfm" 1616779005 1524 4414a8315f39513458b80dfc63bff03a ""
  "/home/simone/.miktex/texmfs/install/fonts/tfm/public/cm/cmr12.tfm" 1616779005 1288 655e228510b4c2a1abe905c368440826 ""
  "/home/simone/.miktex/texmfs/install/fonts/tfm/public/cm/cmr17.tfm" 1616779005 1292 296a67155bdbfc32aa9c636f21e91433 ""
  "/home/simone/.miktex/texmfs/install/fonts/tfm/public/cm/cmsy10.tfm" 1616779005 1124 6c73e740cf17375f03eec0ee63599741 ""
  "/home/simone/.miktex/texmfs/install/fonts/type1/public/amsfonts/cm/cmex10.pfb" 1616778995 30251 6afa5cb1d0204815a708a080681d4674 ""
  "/home/simone/.miktex/texmfs/install/fonts/type1/public/amsfonts/cm/cmmi10.pfb" 1616778995 36299 5f9df58c2139e7edcf37c8fca4bd384d ""
  "/home/simone/.miktex/texmfs/install/fonts/type1/public/amsfonts/cm/cmmi5.pfb" 1616778995 37912 77d683123f92148345f3fc36a38d9ab1 ""
  "/home/simone/.miktex/texmfs/install/fonts/type1/public/amsfonts/cm/cmmi7.pfb" 1616778995 36281 c355509802a035cadc5f15869451dcee ""
  "/home/simone/.miktex/texmfs/install/fonts/type1/public/amsfonts/cm/cmr10.pfb" 1616778995 35752 024fb6c41858982481f6968b5fc26508 ""
  "/home/simone/.miktex/texmfs/install/fonts/type1/public/amsfonts/cm/cmr5.pfb" 1616778995 31809 8670ca339bf94e56da1fc21c80635e2a ""
  "/home/simone/.miktex/texmfs/install/fonts/type1/public/amsfonts/cm/cmr7.pfb" 1616778995 32762 224316ccc9ad3ca0423a14971cfa7fc1 ""
  "/home/simone/.miktex/texmfs/install/fonts/type1/public/amsfonts/cm/cmsy10.pfb" 1616778995 32569 5e5ddc8df908dea60932f3c484a54c0d ""
  "/home/simone/.miktex/texmfs/install/fonts/type1/public/amsfonts/cm/cmsy5.pfb" 1616778995 32915 7bf7720c61a5b3a7ff25b0964421c9b6 ""
  "/home/simone/.miktex/texmfs/install/fonts/type1/public/amsfonts/cm/cmsy7.pfb" 1616778995 32716 08e384dc442464e7285e891af9f45947 ""
  "/home/simone/.miktex/texmfs/install/fonts/type1/public/amsfonts/cmextra/cmex7.pfb" 1616778995 30457 bc0868ebece724ed7c3d37e3d9bff7bd ""
  "/home/simone/.miktex/texmfs/install/fonts/type1/urw/courier/ucrb8a.pfb" 1616779005 50493 4ed1f7e9eba8f1f3e1ec25195460190d ""
  "/home/simone/.miktex/texmfs/install/fonts/type1/urw/courier/ucrr8a.pfb" 1616779005 45758 19968a0990191524e34e1994d4a31cb6 ""
  "/home/simone/.miktex/texmfs/install/fonts/type1/urw/courier/ucrro8a.pfb" 1616779005 44404 ea3d9c0311883914133975dd62a9185c ""
  "/home/simone/.miktex/texmfs/install/fonts/type1/urw/helvetic/uhvb8a.pfb" 1136849748 35941 f27169cc74234d5bd5e4cca5abafaabb ""
  "/home/simone/.miktex/texmfs/install/fonts/type1/urw/helvetic/uhvbo8a.pfb" 1136849748 39013 b244066151b1e3e718f9b8e88a5ff23b ""
  "/home/simone/.miktex/texmfs/install/fonts/type1/urw/helvetic/uhvr8a.pfb" 1136849748 44648 23115b2a545ebfe2c526c3ca99db8b95 ""
  "/home/simone/.miktex/texmfs/install/fonts/type1/urw/times/utmb8a.pfb" 1136849748 44729 811d6c62865936705a31c797a1d5dada ""
  "/home/simone/.miktex/texmfs/install/fonts/type1/urw/times/utmr8a.pfb" 1136849748 46026 6dab18b61c907687b520c72847215a68 ""
  "/home/simone/.miktex/texmfs/install/fonts/type1/urw/times/utmri8a.pfb" 1136849748 45458 a3faba884469519614ca56ba5f6b1de1 ""
  "/home/simone/.miktex/texmfs/install/fonts/vf/adobe/courier/pcrb8t.vf" 1616779005 2184 5d20c8b00cd914e50251116c274e2d0b ""
  "/home/simone/.miktex/texmfs/install/fonts/vf/adobe/courier/pcrr8t.vf" 1616779005 2184 8475af1b9cfa983db5f46f5ed4b8f9f7 ""
  "/home/simone/.miktex/texmfs/install/fonts/vf/adobe/courier/pcrro8t.vf" 1616779005 2280 d7cd083c724c9449e1d12731253966f7 ""
  "/home/simone/.miktex/texmfs/install/fonts/vf/adobe/helvetic/phvb8t.vf" 1136768654 2340 0efed6a948c3c37d870e4e7ddb85c7c3 ""
  "/home/simone/.miktex/texmfs/install/fonts/vf/adobe/helvetic/phvbo8t.vf" 1136768654 2344 88834f8322177295b0266ecc4b0754c3 ""
  "/home/simone/.miktex/texmfs/install/fonts/vf/adobe/helvetic/phvr8t.vf" 1136768654 2344 44ff28c9ef2fc97180cd884f900fee71 ""
  "/home/simone/.miktex/texmfs/install/fonts/vf/adobe/times/ptmb8t.vf" 1136768654 2340 df9c920cc5688ebbf16a93f45ce7bdd3 ""
  "/home/simone/.miktex/texmfs/install/fonts/vf/adobe/times/ptmr8c.vf" 1136768654 3556 8a9a6dcbcd146ef985683f677f4758a6 ""
  "/home/simone/.miktex/texmfs/install/fonts/vf/adobe/times/ptmr8t.vf" 1136768654 2348 91706c542228501c410c266421fbe30c ""
  "/home/simone/.miktex/texmfs/install/fonts/vf/adobe/times/ptmri8c.vf" 1136768654 3564 2068501a2226e54ce367edd5b047e424 ""
  "/home/simone/.miktex/texmfs/install/fonts/vf/adobe/times/ptmri8t.vf" 1136768654 2328 6cd7df782b09b29cfc4d93e55b6b9a59 ""
  "/home/simone/.miktex/texmfs/install/tex/context/base/mkii/supp-pdf.mkii" 1616779027 71627 94eb9990bed73c364d7f53f960cc8c5b ""
  "/home/simone/.miktex/texmfs/install/tex/generic/atbegshi/atbegshi.sty" 1616778997 24708 5584a51a7101caf7e6bbf1fc27d8f7b1 ""
  "/home/simone/.miktex/texmfs/install/tex/generic/babel/babel.def" 1616778998 118719 e672239d75d9419ba29850a1b391bd00 ""
  "/home/simone/.miktex/texmfs/install/tex/generic/babel/babel.sty" 1616778998 37894 44955682e4f134137b9d1033fb86e0ef ""
  "/home/simone/.miktex/texmfs/install/tex/generic/babel/txtbabel.def" 1616778998 5230 84624d139fa443f96294434bccf82f8c ""
  "/home/simone/.miktex/texmfs/install/tex/generic/bigintcalc/bigintcalc.sty" 1616779104 40635 c40361e206be584d448876bba8a64a3b ""
  "/home/simone/.miktex/texmfs/install/tex/generic/bitset/bitset.sty" 1616779103 33961 6b5c75130e435b2bfdb9f480a09a39f9 ""
  "/home/simone/.miktex/texmfs/install/tex/generic/etexcmds/etexcmds.sty" 1616779101 7734 b98cbb34c81f667027c1e3ebdbfce34b ""
  "/home/simone/.miktex/texmfs/install/tex/generic/gettitlestring/gettitlestring.sty" 1616779110 8371 9d55b8bd010bc717624922fb3477d92e ""
  "/home/simone/.miktex/texmfs/install/tex/generic/iftex/iftex.sty" 1616779009 6501 4011d89d9621e0b0901138815ba5ff29 ""
  "/home/simone/.miktex/texmfs/install/tex/generic/iftex/ifvtex.sty" 1616779009 1057 525c2192b5febbd8c1f662c9468335bb ""
  "/home/simone/.miktex/texmfs/install/tex/generic/infwarerr/infwarerr.sty" 1616779090 8356 7bbb2c2373aa810be568c29e333da8ed ""
  "/home/simone/.miktex/texmfs/install/tex/generic/intcalc/intcalc.sty" 1616779100 31769 002a487f55041f8e805cfbf6385ffd97 ""
  "/home/simone/.miktex/texmfs/install/tex/generic/kvdefinekeys/kvdefinekeys.sty" 1616779092 5412 d5a2436094cd7be85769db90f29250a6 ""
  "/home/simone/.miktex/texmfs/install/tex/generic/kvsetkeys/kvsetkeys.sty" 1616779091 13807 952b0226d4efca026f0e19dd266dcc22 ""
  "/home/simone/.miktex/texmfs/install/tex/generic/ltxcmds/ltxcmds.sty" 1616779089 18568 bef0df8787fd78f735cde351f0c12fa3 ""
  "/home/simone/.miktex/texmfs/install/tex/generic/pdfescape/pdfescape.sty" 1616779093 19007 15924f7228aca6c6d184b115f4baa231 ""
  "/home/simone/.miktex/texmfs/install/tex/generic/pdftexcmds/pdftexcmds.sty" 1616779029 20835 ec0be86bd4e880413e9c66aad7c996a1 ""
  "/home/simone/.miktex/texmfs/install/tex/generic/uniquecounter/uniquecounter.sty" 1616779106 7008 f92eaa0a3872ed622bbf538217cd2ab7 ""
  "/home/simone/.miktex/texmfs/install/tex/latex/00miktex/epstopdf-sys.cfg" 1616779026 584 2a1075dd71571459f59146da9f7502ad ""
  "/home/simone/.miktex/texmfs/install/tex/latex/amsfonts/amsfonts.sty" 1616778995 5949 3f3fd50a8cc94c3d4cbf4fc66cd3df1c ""
  "/home/simone/.miktex/texmfs/install/tex/latex/amsfonts/amssymb.sty" 1616778995 13829 94730e64147574077f8ecfea9bb69af4 ""
  "/home/simone/.miktex/texmfs/install/tex/latex/amsfonts/umsa.fd" 1616778995 961 6518c6525a34feb5e8250ffa91731cff ""
  "/home/simone/.miktex/texmfs/install/tex/latex/amsfonts/umsb.fd" 1616778995 961 d02606146ba5601b5645f987c92e6193 ""
  "/home/simone/.miktex/texmfs/install/tex/latex/amsmath/amsbsy.sty" 1616778996 2283 e62ad98f2c5ecff974725d94522cb363 ""
  "/home/simone/.miktex/texmfs/install/tex/latex/amsmath/amsgen.sty" 1616778996 4297 7d1d6024daddc94f1bcff007aeda01c8 ""
  "/home/simone/.miktex/texmfs/install/tex/latex/amsmath/amsmath.sty" 1616778996 90280 ce3f68bfdd678a6b6cf94c90bca8017c ""
  "/home/simone/.miktex/texmfs/install/tex/latex/amsmath/amsopn.sty" 1616778996 4233 471599a04ed8ee2a4da78f0b7e67c29c ""
  "/home/simone/.miktex/texmfs/install/tex/latex/amsmath/amstext.sty" 1616778996 2508 2fba5d49a3080da7d53f11095c5bd6bd ""
  "/home/simone/.miktex/texmfs/install/tex/latex/arabi/bblopts.cfg" 1616778996 902 74ca68fb2e6c2b8d370ff0e672de0f31 ""
  "/home/simone/.miktex/texmfs/install/tex/latex/atveryend/atveryend.sty" 1616778997 19336 ce7ae9438967282886b3b036cfad1e4d ""
  "/home/simone/.miktex/texmfs/install/tex/latex/auxhook/auxhook.sty" 1616779097 3935 57aa3c3e203a5c2effb4d2bd2efbc323 ""
  "/home/simone/.miktex/texmfs/install/tex/latex/babel-english/english.ldf" 1616778998 7219 b48779f86960cdfa7e7579726dd8a5d4 ""
  "/home/simone/.miktex/texmfs/install/tex/latex/base/alltt.sty" 1616779023 3140 3b501b609b11ff7320ce1a19dbac0e3b ""
  "/home/simone/.miktex/texmfs/install/tex/latex/base/atbegshi-ltx.sty" 1616779023 2973 00085839f5881178c538db5970d3c38e ""
  "/home/simone/.miktex/texmfs/install/tex/latex/base/atveryend-ltx.sty" 1616779023 2596 b3a02e33035865e9f0457e064d436fb8 ""
  "/home/simone/.miktex/texmfs/install/tex/latex/base/fontenc.sty" 1616779023 4947 8cb7717f0cc771eca0fda15160c7fee9 ""
  "/home/simone/.miktex/texmfs/install/tex/latex/base/inputenc.sty" 1616779023 5050 0d3b77275060ca09a40635b830c3c904 ""
  "/home/simone/.miktex/texmfs/install/tex/latex/base/makeidx.sty" 1616779023 1940 dd4f2aa11c89855a3c47d09758782ba5 ""
  "/home/simone/.miktex/texmfs/install/tex/latex/base/report.cls" 1616779023 23204 74c91ecbcc47161218f25d9d0651c0f7 ""
  "/home/simone/.miktex/texmfs/install/tex/latex/base/size10.clo" 1616779023 8449 a72d5d4e612221b46000c3d71724e0ef ""
  "/home/simone/.miktex/texmfs/install/tex/latex/base/textcomp.sty" 1616779023 2821 2c0928feafd5527387e29a1af774d030 ""
  "/home/simone/.miktex/texmfs/install/tex/latex/capt-of/capt-of.sty" 1617296537 1344 b7287b51091ae30e27d31ee87714273c ""
  "/home/simone/.miktex/texmfs/install/tex/latex/cmap/cmap.sty" 1617296518 3574 ddc11a0ae1c579d351ed20d2319ad422 ""
  "/home/simone/.miktex/texmfs/install/tex/latex/epstopdf-pkg/epstopdf-base.sty" 1616779006 14411 d751e0af939150cc9d161f3ebc592c61 ""
  "/home/simone/.miktex/texmfs/install/tex/latex/fancyhdr/fancyhdr.sty" 1617296522 17086 7ed8cbc4d361ec87392817e0dd4f65ec ""
  "/home/simone/.miktex/texmfs/install/tex/latex/fancyvrb/fancyvrb.sty" 1617296530 43232 77215847fb982a414a0d843125e271d4 ""
  "/home/simone/.miktex/texmfs/install/tex/latex/float/float.sty" 1617296532 6916 f35860e0302c70cb81cb70b0a7937693 ""
  "/home/simone/.miktex/texmfs/install/tex/latex/fncychap/fncychap.sty" 1617296521 19488 fdd52eb173b3197d748e1ec25acb042f ""
  "/home/simone/.miktex/texmfs/install/tex/latex/framed/framed.sty" 1617296529 22449 7ec15c16d0d66790f28e90343c5434a3 ""
  "/home/simone/.miktex/texmfs/install/tex/latex/geometry/geometry.cfg" 1617296540 1104 d237cad3f14be9fd91fe1f904d051a01 ""
  "/home/simone/.miktex/texmfs/install/tex/latex/geometry/geometry.sty" 1617296540 42759 e63af52ccddba7489ac0e17d6a3344bd ""
  "/home/simone/.miktex/texmfs/install/tex/latex/graphics-cfg/color.cfg" 1616779008 1213 620bba36b25224fa9b7e1ccb4ecb76fd ""
  "/home/simone/.miktex/texmfs/install/tex/latex/graphics-cfg/graphics.cfg" 1616779008 1224 978390e9c2234eab29404bc21b268d1e ""
  "/home/simone/.miktex/texmfs/install/tex/latex/graphics-def/pdftex.def" 1616779008 19103 48d29b6e2a64cb717117ef65f107b404 ""
  "/home/simone/.miktex/texmfs/install/tex/latex/graphics/color.sty" 1616779008 7300 5050b6ab5258b92490345e07a98cf0d4 ""
  "/home/simone/.miktex/texmfs/install/tex/latex/graphics/graphics.sty" 1616779008 18881 fcaac9be49429f0b2d9a06bf01f68643 ""
  "/home/simone/.miktex/texmfs/install/tex/latex/graphics/graphicx.sty" 1616779008 8167 ffb7cbc2d402299e51358388574f079e ""
  "/home/simone/.miktex/texmfs/install/tex/latex/graphics/keyval.sty" 1616779008 2677 8bf0251bbc6fa542a4741485cf6bf9c9 ""
  "/home/simone/.miktex/texmfs/install/tex/latex/graphics/trig.sty" 1616779008 4093 a9ed0e8e6719af98ec5e44cff6b193b1 ""
  "/home/simone/.miktex/texmfs/install/tex/latex/hycolor/hycolor.sty" 1616779095 18571 5a6205e2f490b14bdc73fa03b48f19d6 ""
  "/home/simone/.miktex/texmfs/install/tex/latex/hyperref/hpdftex.def" 1616779009 49890 ad792e908af8bc5c293b806bd181e58d ""
  "/home/simone/.miktex/texmfs/install/tex/latex/hyperref/hyperref-langpatches.def" 1616779009 1777 31eee4f3f5c138e44a4e16abfcaefa41 ""
  "/home/simone/.miktex/texmfs/install/tex/latex/hyperref/hyperref.sty" 1616779009 230839 177eac084bda18ae827a77792a17292e ""
  "/home/simone/.miktex/texmfs/install/tex/latex/hyperref/nameref.sty" 1616779009 13242 133e617c5eebffdd05e421624022b267 ""
  "/home/simone/.miktex/texmfs/install/tex/latex/hyperref/pd1enc.def" 1616779009 14132 3a8b7a8250bdb5871e322188be7c9ff6 ""
  "/home/simone/.miktex/texmfs/install/tex/latex/hyperref/puenc.def" 1616779009 117004 7c05c6dde5b2b6a14f97dd4137739212 ""
  "/home/simone/.miktex/texmfs/install/tex/latex/kvoptions/kvoptions.sty" 1616779099 22521 d2fceb764a442a2001d257ef11db7618 ""
  "/home/simone/.miktex/texmfs/install/tex/latex/l3backend/l3backend-pdftex.def" 1616779010 27164 3d5f7887a89df4eb2f6e86ba26ef3254 ""
  "/home/simone/.miktex/texmfs/install/tex/latex/latex-tools/array.sty" 1616779016 13051 dfa237d6e0bbc1624d6f3a73552ac12f ""
  "/home/simone/.miktex/texmfs/install/tex/latex/latex-tools/longtable.sty" 1616779016 12581 ceb2d1743cc390a80e861d6995d1fc89 ""
  "/home/simone/.miktex/texmfs/install/tex/latex/latex-tools/multicol.sty" 1616779016 32634 c210a2fe2c4e4f5377fd15ac2ac8fa53 ""
  "/home/simone/.miktex/texmfs/install/tex/latex/letltxmacro/letltxmacro.sty" 1616779096 5766 13a9e8766c47f30327caf893ece86ac8 ""
  "/home/simone/.miktex/texmfs/install/tex/latex/mmap/oml.cmap" 1617296542 1866 c1c12138091b4a8edd4a24a940e6f792 ""
  "/home/simone/.miktex/texmfs/install/tex/latex/mmap/oms.cmap" 1617296542 2370 3b1f71b14b974f07cef532db09ae9ee0 ""
  "/home/simone/.miktex/texmfs/install/tex/latex/mmap/omx.cmap" 1617296542 3001 252c8ca42b06a22cb1a11c0e47790c6e ""
  "/home/simone/.miktex/texmfs/install/tex/latex/mmap/ot1.cmap" 1617296542 1619 cc3d0a89f8d0890309c67a9eb9299e62 ""
  "/home/simone/.miktex/texmfs/install/tex/latex/mmap/t1.cmap" 1617296542 1936 8b98daee942c919f642a4d83a1a4e42a ""
  "/home/simone/.miktex/texmfs/install/tex/latex/needspace/needspace.sty" 1617296539 852 0e34dbb72efc69fa07602405ad95585e ""
  "/home/simone/.miktex/texmfs/install/tex/latex/oberdiek/hypcap.sty" 1616779029 3822 b53c749cd81352b4679a35b0dafefb95 ""
  "/home/simone/.miktex/texmfs/install/tex/latex/parskip/parskip-2001-04-09.sty" 1617296534 2757 ea00cb4f4e9abc702916f74d3812ef67 ""
  "/home/simone/.miktex/texmfs/install/tex/latex/parskip/parskip.sty" 1617296534 4288 94714aa7f535440f33181fec52a31963 ""
  "/home/simone/.miktex/texmfs/install/tex/latex/psnfss/t1pcr.fd" 1617296519 835 03ffed60d29ecfee4d8c444fd438a852 ""
  "/home/simone/.miktex/texmfs/install/tex/latex/psnfss/t1phv.fd" 1617296519 1536 0db4718053ae05eb06859828cc1f372c ""
  "/home/simone/.miktex/texmfs/install/tex/latex/psnfss/t1ptm.fd" 1617296519 817 8cd6152a28b34e24c35ade83b9bcf4f1 ""
  "/home/simone/.miktex/texmfs/install/tex/latex/psnfss/times.sty" 1617296519 888 31bd282fb2f5f4931c3f92b9bf2f8ef7 ""
  "/home/simone/.miktex/texmfs/install/tex/latex/psnfss/ts1ptm.fd" 1617296519 653 3c2b212581b38326a2d43769c35b19e7 ""
  "/home/simone/.miktex/texmfs/install/tex/latex/refcount/refcount.sty" 1616779109 9878 9e94e8fa600d95f9c7731bb21dfb67a4 ""
  "/home/simone/.miktex/texmfs/install/tex/latex/rerunfilecheck/rerunfilecheck.sty" 1616779105 9715 b051d5b493d9fe5f4bc251462d039e5f ""
  "/home/simone/.miktex/texmfs/install/tex/latex/tabulary/tabulary.sty" 1617296525 14242 f3fa7fe715a54606edf43627e409a51b ""
  "/home/simone/.miktex/texmfs/install/tex/latex/titlesec/titlesec.sty" 1617296524 48596 2b6a95da931c07a430b1a61904aaa42d ""
  "/home/simone/.miktex/texmfs/install/tex/latex/upquote/upquote.sty" 1617296536 1088 c352a232e0e0bfae98e68b206e4febe5 ""
  "/home/simone/.miktex/texmfs/install/tex/latex/url/url.sty" 1616779036 12796 8edb7d69a20b857904dd0ea757c14ec9 ""
  "/home/simone/.miktex/texmfs/install/tex/latex/varwidth/varwidth.sty" 1617296527 10894 d359a13923460b2a73d4312d613554c8 ""
  "/home/simone/.miktex/texmfs/install/tex/latex/wrapfig/wrapfig.sty" 1617296533 26220 3701aebf80ccdef248c0c20dd062fea9 ""
  "/home/simone/.miktex/texmfs/install/tex/latex/xcolor/xcolor.sty" 1616779037 57049 74963e80d77be39a0b7442967b27c75b ""
  "footnotehyper-sphinx.sty" 1616256528 13076 494d8d655f805dc10b53008469c289a2 ""
  "icarogw.aux" 1617297534 22018 61d8f73a6dbddc5e3152235c0d626129 "pdflatex"
  "icarogw.ind" 1617297532 13508 e3a4880cf37cbe7a7c6920379c5e7b43 "makeindex icarogw.idx"
  "icarogw.out" 1617297534 1943 c232541ea68eda1a6f827c47c39c2646 "pdflatex"
  "icarogw.tex" 1617297531 108206 d7b6ff28d46ba6001118563719320290 ""
  "icarogw.toc" 1617297534 2185 426bf30291d7c5cae099fb4b9bf42271 "pdflatex"
  "sphinx.sty" 1616256528 91458 532cd893425be1ee8212ce283449999c ""
  "sphinxhighlight.sty" 1617297531 6615 02ef3c01e6bb67d3cc0658d354509680 ""
  "sphinxmanual.cls" 1616350758 4236 124cd90deb92742b5d3922bfc2cd70c0 ""
  "sphinxmessages.sty" 1617297531 745 3f5fcd6cdd7964ed608767954a8ced6f ""
  "sphinxmulticell.sty" 1616350758 14606 0b6edc2b1a83546ed92026d1f6a311b5 ""
  (generated)
  "icarogw.idx"
  "icarogw.aux"
  "icarogw.pdf"
  "icarogw.log"
  "icarogw.toc"
  "icarogw.out"
