\relax 
\providecommand\hyper@newdestlabel[2]{}
\providecommand\babel@aux[2]{}
\@nameuse{bbl@beforestart}
\providecommand\HyperFirstAtBeginDocument{\AtBeginDocument}
\HyperFirstAtBeginDocument{\ifx\hyper@anchor\@undefined
\global\let\oldcontentsline\contentsline
\gdef\contentsline#1#2#3#4{\oldcontentsline{#1}{#2}{#3}}
\global\let\oldnewlabel\newlabel
\gdef\newlabel#1#2{\newlabelxx{#1}#2}
\gdef\newlabelxx#1#2#3#4#5#6{\oldnewlabel{#1}{{#2}{#3}}}
\AtEndDocument{\ifx\hyper@anchor\@undefined
\let\contentsline\oldcontentsline
\let\newlabel\oldnewlabel
\fi}
\fi}
\global\let\hyper@last\relax 
\gdef\HyperFirstAtBeginDocument#1{#1}
\providecommand\HyField@AuxAddToFields[1]{}
\providecommand\HyField@AuxAddToCoFields[2]{}
\babel@aux{english}{}
\newlabel{index::doc}{{}{1}{}{section*.2}{}}
\@writefile{toc}{\contentsline {chapter}{\numberline {1}icarogw package}{3}{chapter.1}\protected@file@percent }
\@writefile{lof}{\addvspace {10\p@ }}
\@writefile{lot}{\addvspace {10\p@ }}
\newlabel{icarogw:icarogw-package}{{1}{3}{icarogw package}{chapter.1}{}}
\newlabel{icarogw::doc}{{1}{3}{icarogw package}{chapter.1}{}}
\@writefile{toc}{\contentsline {section}{\numberline {1.1}Subpackages}{3}{section.1.1}\protected@file@percent }
\newlabel{icarogw:subpackages}{{1.1}{3}{Subpackages}{section.1.1}{}}
\@writefile{toc}{\contentsline {subsection}{\numberline {1.1.1}icarogw.analyses package}{3}{subsection.1.1.1}\protected@file@percent }
\newlabel{icarogw.analyses:icarogw-analyses-package}{{1.1.1}{3}{icarogw.analyses package}{subsection.1.1.1}{}}
\newlabel{icarogw.analyses::doc}{{1.1.1}{3}{icarogw.analyses package}{subsection.1.1.1}{}}
\@writefile{toc}{\contentsline {subsubsection}{Submodules}{3}{subsubsection*.3}\protected@file@percent }
\newlabel{icarogw.analyses:submodules}{{1.1.1}{3}{Submodules}{subsubsection*.3}{}}
\@writefile{toc}{\contentsline {subsubsection}{icarogw.analyses.cosmo\_pop\_rate\_marginalized module}{3}{subsubsection*.4}\protected@file@percent }
\newlabel{icarogw.analyses:module-icarogw.analyses.cosmo_pop_rate_marginalized}{{1.1.1}{3}{icarogw.analyses.cosmo\_pop\_rate\_marginalized module}{subsubsection*.4}{}}
\newlabel{icarogw.analyses:icarogw-analyses-cosmo-pop-rate-marginalized-module}{{1.1.1}{3}{icarogw.analyses.cosmo\_pop\_rate\_marginalized module}{subsubsection*.4}{}}
\newlabel{icarogw.analyses:icarogw.analyses.cosmo_pop_rate_marginalized.BBH_likelihood}{{1.1.1}{3}{icarogw.analyses.cosmo\_pop\_rate\_marginalized module}{section*.5}{}}
\newlabel{icarogw.analyses:icarogw.analyses.cosmo_pop_rate_marginalized.BBH_likelihood.log_likelihood}{{1.1.1}{3}{icarogw.analyses.cosmo\_pop\_rate\_marginalized module}{section*.6}{}}
\newlabel{icarogw.analyses:icarogw.analyses.cosmo_pop_rate_marginalized.hierarchical_analysis}{{1.1.1}{3}{icarogw.analyses.cosmo\_pop\_rate\_marginalized module}{section*.7}{}}
\newlabel{icarogw.analyses:icarogw.analyses.cosmo_pop_rate_marginalized.hierarchical_analysis.run_analysis_on_lists}{{1.1.1}{3}{icarogw.analyses.cosmo\_pop\_rate\_marginalized module}{section*.8}{}}
\newlabel{icarogw.analyses:icarogw.analyses.cosmo_pop_rate_marginalized.hierarchical_analysis.run_bilby}{{1.1.1}{4}{icarogw.analyses.cosmo\_pop\_rate\_marginalized module}{section*.9}{}}
\@writefile{toc}{\contentsline {subsubsection}{Module contents}{4}{subsubsection*.10}\protected@file@percent }
\newlabel{icarogw.analyses:module-icarogw.analyses}{{1.1.1}{4}{Module contents}{subsubsection*.10}{}}
\newlabel{icarogw.analyses:module-contents}{{1.1.1}{4}{Module contents}{subsubsection*.10}{}}
\@writefile{toc}{\contentsline {subsection}{\numberline {1.1.2}icarogw.priors package}{4}{subsection.1.1.2}\protected@file@percent }
\newlabel{icarogw.priors:icarogw-priors-package}{{1.1.2}{4}{icarogw.priors package}{subsection.1.1.2}{}}
\newlabel{icarogw.priors::doc}{{1.1.2}{4}{icarogw.priors package}{subsection.1.1.2}{}}
\@writefile{toc}{\contentsline {subsubsection}{Submodules}{4}{subsubsection*.11}\protected@file@percent }
\newlabel{icarogw.priors:submodules}{{1.1.2}{4}{Submodules}{subsubsection*.11}{}}
\@writefile{toc}{\contentsline {subsubsection}{icarogw.priors.custom\_bilby\_priors module}{4}{subsubsection*.12}\protected@file@percent }
\newlabel{icarogw.priors:module-icarogw.priors.custom_bilby_priors}{{1.1.2}{4}{icarogw.priors.custom\_bilby\_priors module}{subsubsection*.12}{}}
\newlabel{icarogw.priors:icarogw-priors-custom-bilby-priors-module}{{1.1.2}{4}{icarogw.priors.custom\_bilby\_priors module}{subsubsection*.12}{}}
\newlabel{icarogw.priors:icarogw.priors.custom_bilby_priors.DoubleTaperedPowerLaw}{{1.1.2}{4}{icarogw.priors.custom\_bilby\_priors module}{section*.13}{}}
\newlabel{icarogw.priors:icarogw.priors.custom_bilby_priors.DoubleTaperedPowerLaw.prob}{{1.1.2}{4}{icarogw.priors.custom\_bilby\_priors module}{section*.14}{}}
\newlabel{icarogw.priors:icarogw.priors.custom_bilby_priors.DoubleTaperedPowerLaw.rescale}{{1.1.2}{4}{icarogw.priors.custom\_bilby\_priors module}{section*.15}{}}
\newlabel{icarogw.priors:icarogw.priors.custom_bilby_priors.PowerLawGaussian}{{1.1.2}{4}{icarogw.priors.custom\_bilby\_priors module}{section*.16}{}}
\newlabel{icarogw.priors:icarogw.priors.custom_bilby_priors.PowerLawGaussian.prob}{{1.1.2}{5}{icarogw.priors.custom\_bilby\_priors module}{section*.17}{}}
\newlabel{icarogw.priors:icarogw.priors.custom_bilby_priors.PowerLawGaussian.rescale}{{1.1.2}{5}{icarogw.priors.custom\_bilby\_priors module}{section*.18}{}}
\newlabel{icarogw.priors:icarogw.priors.custom_bilby_priors.S_factor}{{1.1.2}{5}{icarogw.priors.custom\_bilby\_priors module}{section*.19}{}}
\newlabel{icarogw.priors:icarogw.priors.custom_bilby_priors.TaperedPowerLaw}{{1.1.2}{5}{icarogw.priors.custom\_bilby\_priors module}{section*.20}{}}
\newlabel{icarogw.priors:icarogw.priors.custom_bilby_priors.TaperedPowerLaw.prob}{{1.1.2}{5}{icarogw.priors.custom\_bilby\_priors module}{section*.21}{}}
\newlabel{icarogw.priors:icarogw.priors.custom_bilby_priors.TaperedPowerLaw.rescale}{{1.1.2}{5}{icarogw.priors.custom\_bilby\_priors module}{section*.22}{}}
\newlabel{icarogw.priors:icarogw.priors.custom_bilby_priors.TaperedPowerLawGaussian}{{1.1.2}{5}{icarogw.priors.custom\_bilby\_priors module}{section*.23}{}}
\newlabel{icarogw.priors:icarogw.priors.custom_bilby_priors.TaperedPowerLawGaussian.prob}{{1.1.2}{6}{icarogw.priors.custom\_bilby\_priors module}{section*.24}{}}
\newlabel{icarogw.priors:icarogw.priors.custom_bilby_priors.TaperedPowerLawGaussian.rescale}{{1.1.2}{6}{icarogw.priors.custom\_bilby\_priors module}{section*.25}{}}
\@writefile{toc}{\contentsline {subsubsection}{icarogw.priors.custom\_math\_priors module}{6}{subsubsection*.26}\protected@file@percent }
\newlabel{icarogw.priors:module-icarogw.priors.custom_math_priors}{{1.1.2}{6}{icarogw.priors.custom\_math\_priors module}{subsubsection*.26}{}}
\newlabel{icarogw.priors:icarogw-priors-custom-math-priors-module}{{1.1.2}{6}{icarogw.priors.custom\_math\_priors module}{subsubsection*.26}{}}
\newlabel{icarogw.priors:icarogw.priors.custom_math_priors.BrokenPowerLaw_math}{{1.1.2}{6}{icarogw.priors.custom\_math\_priors module}{section*.27}{}}
\newlabel{icarogw.priors:icarogw.priors.custom_math_priors.BrokenPowerLaw_math.cdf}{{1.1.2}{6}{icarogw.priors.custom\_math\_priors module}{section*.28}{}}
\newlabel{icarogw.priors:icarogw.priors.custom_math_priors.BrokenPowerLaw_math.conditioned_prob}{{1.1.2}{6}{icarogw.priors.custom\_math\_priors module}{section*.29}{}}
\newlabel{icarogw.priors:icarogw.priors.custom_math_priors.BrokenPowerLaw_math.prob}{{1.1.2}{6}{icarogw.priors.custom\_math\_priors module}{section*.30}{}}
\newlabel{icarogw.priors:icarogw.priors.custom_math_priors.PowerLawDoubleGaussian_math}{{1.1.2}{6}{icarogw.priors.custom\_math\_priors module}{section*.31}{}}
\newlabel{icarogw.priors:icarogw.priors.custom_math_priors.PowerLawDoubleGaussian_math.cdf}{{1.1.2}{7}{icarogw.priors.custom\_math\_priors module}{section*.32}{}}
\newlabel{icarogw.priors:icarogw.priors.custom_math_priors.PowerLawDoubleGaussian_math.conditioned_prob}{{1.1.2}{7}{icarogw.priors.custom\_math\_priors module}{section*.33}{}}
\newlabel{icarogw.priors:icarogw.priors.custom_math_priors.PowerLawDoubleGaussian_math.prob}{{1.1.2}{7}{icarogw.priors.custom\_math\_priors module}{section*.34}{}}
\newlabel{icarogw.priors:icarogw.priors.custom_math_priors.PowerLawGaussian_math}{{1.1.2}{7}{icarogw.priors.custom\_math\_priors module}{section*.35}{}}
\newlabel{icarogw.priors:icarogw.priors.custom_math_priors.PowerLawGaussian_math.cdf}{{1.1.2}{8}{icarogw.priors.custom\_math\_priors module}{section*.36}{}}
\newlabel{icarogw.priors:icarogw.priors.custom_math_priors.PowerLawGaussian_math.conditioned_prob}{{1.1.2}{8}{icarogw.priors.custom\_math\_priors module}{section*.37}{}}
\newlabel{icarogw.priors:icarogw.priors.custom_math_priors.PowerLawGaussian_math.prob}{{1.1.2}{8}{icarogw.priors.custom\_math\_priors module}{section*.38}{}}
\newlabel{icarogw.priors:icarogw.priors.custom_math_priors.PowerLaw_math}{{1.1.2}{8}{icarogw.priors.custom\_math\_priors module}{section*.39}{}}
\newlabel{icarogw.priors:icarogw.priors.custom_math_priors.PowerLaw_math.cdf}{{1.1.2}{8}{icarogw.priors.custom\_math\_priors module}{section*.40}{}}
\newlabel{icarogw.priors:icarogw.priors.custom_math_priors.PowerLaw_math.conditioned_prob}{{1.1.2}{8}{icarogw.priors.custom\_math\_priors module}{section*.41}{}}
\newlabel{icarogw.priors:icarogw.priors.custom_math_priors.PowerLaw_math.prob}{{1.1.2}{9}{icarogw.priors.custom\_math\_priors module}{section*.42}{}}
\newlabel{icarogw.priors:icarogw.priors.custom_math_priors.SmoothedProb}{{1.1.2}{9}{icarogw.priors.custom\_math\_priors module}{section*.43}{}}
\newlabel{icarogw.priors:icarogw.priors.custom_math_priors.SmoothedProb.cdf}{{1.1.2}{9}{icarogw.priors.custom\_math\_priors module}{section*.44}{}}
\newlabel{icarogw.priors:icarogw.priors.custom_math_priors.SmoothedProb.conditioned_prob}{{1.1.2}{9}{icarogw.priors.custom\_math\_priors module}{section*.45}{}}
\newlabel{icarogw.priors:icarogw.priors.custom_math_priors.SmoothedProb.prob}{{1.1.2}{9}{icarogw.priors.custom\_math\_priors module}{section*.46}{}}
\newlabel{icarogw.priors:icarogw.priors.custom_math_priors.Truncated_Gaussian_math}{{1.1.2}{9}{icarogw.priors.custom\_math\_priors module}{section*.47}{}}
\newlabel{icarogw.priors:icarogw.priors.custom_math_priors.Truncated_Gaussian_math.cdf}{{1.1.2}{9}{icarogw.priors.custom\_math\_priors module}{section*.48}{}}
\newlabel{icarogw.priors:icarogw.priors.custom_math_priors.Truncated_Gaussian_math.conditioned_prob}{{1.1.2}{10}{icarogw.priors.custom\_math\_priors module}{section*.49}{}}
\newlabel{icarogw.priors:icarogw.priors.custom_math_priors.Truncated_Gaussian_math.prob}{{1.1.2}{10}{icarogw.priors.custom\_math\_priors module}{section*.50}{}}
\newlabel{icarogw.priors:icarogw.priors.custom_math_priors.get_PL_norm}{{1.1.2}{10}{icarogw.priors.custom\_math\_priors module}{section*.51}{}}
\newlabel{icarogw.priors:icarogw.priors.custom_math_priors.get_gaussian_norm}{{1.1.2}{10}{icarogw.priors.custom\_math\_priors module}{section*.52}{}}
\@writefile{toc}{\contentsline {subsubsection}{icarogw.priors.mass module}{10}{subsubsection*.53}\protected@file@percent }
\newlabel{icarogw.priors:module-icarogw.priors.mass}{{1.1.2}{10}{icarogw.priors.mass module}{subsubsection*.53}{}}
\newlabel{icarogw.priors:icarogw-priors-mass-module}{{1.1.2}{10}{icarogw.priors.mass module}{subsubsection*.53}{}}
\newlabel{icarogw.priors:icarogw.priors.mass.condition_func_m1m2}{{1.1.2}{10}{icarogw.priors.mass module}{section*.54}{}}
\newlabel{icarogw.priors:icarogw.priors.mass.mass_prior}{{1.1.2}{10}{icarogw.priors.mass module}{section*.55}{}}
\newlabel{icarogw.priors:icarogw.priors.mass.mass_prior.joint_prob}{{1.1.2}{10}{icarogw.priors.mass module}{section*.56}{}}
\newlabel{icarogw.priors:icarogw.priors.mass.mass_prior.sample}{{1.1.2}{11}{icarogw.priors.mass module}{section*.57}{}}
\@writefile{toc}{\contentsline {subsubsection}{icarogw.priors.redshift module}{11}{subsubsection*.58}\protected@file@percent }
\newlabel{icarogw.priors:module-icarogw.priors.redshift}{{1.1.2}{11}{icarogw.priors.redshift module}{subsubsection*.58}{}}
\newlabel{icarogw.priors:icarogw-priors-redshift-module}{{1.1.2}{11}{icarogw.priors.redshift module}{subsubsection*.58}{}}
\newlabel{icarogw.priors:icarogw.priors.redshift.redshift_prior}{{1.1.2}{11}{icarogw.priors.redshift module}{section*.59}{}}
\newlabel{icarogw.priors:icarogw.priors.redshift.redshift_prior.p_z}{{1.1.2}{11}{icarogw.priors.redshift module}{section*.60}{}}
\@writefile{toc}{\contentsline {subsubsection}{Module contents}{11}{subsubsection*.61}\protected@file@percent }
\newlabel{icarogw.priors:module-icarogw.priors}{{1.1.2}{11}{Module contents}{subsubsection*.61}{}}
\newlabel{icarogw.priors:module-contents}{{1.1.2}{11}{Module contents}{subsubsection*.61}{}}
\@writefile{toc}{\contentsline {subsection}{\numberline {1.1.3}icarogw.utils package}{11}{subsection.1.1.3}\protected@file@percent }
\newlabel{icarogw.utils:icarogw-utils-package}{{1.1.3}{11}{icarogw.utils package}{subsection.1.1.3}{}}
\newlabel{icarogw.utils::doc}{{1.1.3}{11}{icarogw.utils package}{subsection.1.1.3}{}}
\@writefile{toc}{\contentsline {subsubsection}{Submodules}{11}{subsubsection*.62}\protected@file@percent }
\newlabel{icarogw.utils:submodules}{{1.1.3}{11}{Submodules}{subsubsection*.62}{}}
\@writefile{toc}{\contentsline {subsubsection}{icarogw.utils.conversions module}{11}{subsubsection*.63}\protected@file@percent }
\newlabel{icarogw.utils:module-icarogw.utils.conversions}{{1.1.3}{11}{icarogw.utils.conversions module}{subsubsection*.63}{}}
\newlabel{icarogw.utils:icarogw-utils-conversions-module}{{1.1.3}{11}{icarogw.utils.conversions module}{subsubsection*.63}{}}
\newlabel{icarogw.utils:icarogw.utils.conversions.detector_frame_to_source_frame}{{1.1.3}{11}{icarogw.utils.conversions module}{section*.64}{}}
\newlabel{icarogw.utils:icarogw.utils.conversions.detector_to_source_jacobian}{{1.1.3}{12}{icarogw.utils.conversions module}{section*.65}{}}
\newlabel{icarogw.utils:icarogw.utils.conversions.source_frame_to_detector_frame}{{1.1.3}{12}{icarogw.utils.conversions module}{section*.66}{}}
\newlabel{icarogw.utils:icarogw.utils.conversions.source_to_detector_jacobian}{{1.1.3}{12}{icarogw.utils.conversions module}{section*.67}{}}
\@writefile{toc}{\contentsline {subsubsection}{icarogw.utils.plotting module}{12}{subsubsection*.68}\protected@file@percent }
\newlabel{icarogw.utils:module-icarogw.utils.plotting}{{1.1.3}{12}{icarogw.utils.plotting module}{subsubsection*.68}{}}
\newlabel{icarogw.utils:icarogw-utils-plotting-module}{{1.1.3}{12}{icarogw.utils.plotting module}{subsubsection*.68}{}}
\newlabel{icarogw.utils:icarogw.utils.plotting.plot_CL}{{1.1.3}{12}{icarogw.utils.plotting module}{section*.69}{}}
\newlabel{icarogw.utils:icarogw.utils.plotting.posterior_predictive_check}{{1.1.3}{12}{icarogw.utils.plotting module}{section*.70}{}}
\@writefile{toc}{\contentsline {subsubsection}{icarogw.utils.quick\_init module}{13}{subsubsection*.71}\protected@file@percent }
\newlabel{icarogw.utils:module-icarogw.utils.quick_init}{{1.1.3}{13}{icarogw.utils.quick\_init module}{subsubsection*.71}{}}
\newlabel{icarogw.utils:icarogw-utils-quick-init-module}{{1.1.3}{13}{icarogw.utils.quick\_init module}{subsubsection*.71}{}}
\newlabel{icarogw.utils:icarogw.utils.quick_init.initialize_events_dict}{{1.1.3}{13}{icarogw.utils.quick\_init module}{section*.72}{}}
\newlabel{icarogw.utils:icarogw.utils.quick_init.initialize_prior_dict}{{1.1.3}{13}{icarogw.utils.quick\_init module}{section*.73}{}}
\newlabel{icarogw.utils:icarogw.utils.quick_init.write_condor_files}{{1.1.3}{13}{icarogw.utils.quick\_init module}{section*.74}{}}
\@writefile{toc}{\contentsline {subsubsection}{Module contents}{13}{subsubsection*.75}\protected@file@percent }
\newlabel{icarogw.utils:module-icarogw.utils}{{1.1.3}{13}{Module contents}{subsubsection*.75}{}}
\newlabel{icarogw.utils:module-contents}{{1.1.3}{13}{Module contents}{subsubsection*.75}{}}
\@writefile{toc}{\contentsline {section}{\numberline {1.2}Submodules}{13}{section.1.2}\protected@file@percent }
\newlabel{icarogw:submodules}{{1.2}{13}{Submodules}{section.1.2}{}}
\@writefile{toc}{\contentsline {section}{\numberline {1.3}icarogw.cosmologies module}{13}{section.1.3}\protected@file@percent }
\newlabel{icarogw:module-icarogw.cosmologies}{{1.3}{13}{icarogw.cosmologies module}{section.1.3}{}}
\newlabel{icarogw:icarogw-cosmologies-module}{{1.3}{13}{icarogw.cosmologies module}{section.1.3}{}}
\newlabel{icarogw:icarogw.cosmologies.flatLCDM}{{1.3}{13}{icarogw.cosmologies module}{section*.76}{}}
\newlabel{icarogw:icarogw.cosmologies.flatLCDM.Efunc}{{1.3}{13}{icarogw.cosmologies module}{section*.77}{}}
\newlabel{icarogw:icarogw.cosmologies.flatLCDM.dL_by_dz}{{1.3}{13}{icarogw.cosmologies module}{section*.78}{}}
\newlabel{icarogw:icarogw.cosmologies.flatLCDM.dVc_by_dz}{{1.3}{13}{icarogw.cosmologies module}{section*.79}{}}
\newlabel{icarogw:icarogw.cosmologies.flatLCDM.dl_at_z}{{1.3}{13}{icarogw.cosmologies module}{section*.80}{}}
\newlabel{icarogw:icarogw.cosmologies.flatLCDM.z_at_dl}{{1.3}{13}{icarogw.cosmologies module}{section*.81}{}}
\newlabel{icarogw:icarogw.cosmologies.w0flatLCDM}{{1.3}{13}{icarogw.cosmologies module}{section*.82}{}}
\newlabel{icarogw:icarogw.cosmologies.w0flatLCDM.Efunc}{{1.3}{13}{icarogw.cosmologies module}{section*.83}{}}
\newlabel{icarogw:icarogw.cosmologies.w0flatLCDM.dL_by_dz}{{1.3}{14}{icarogw.cosmologies module}{section*.84}{}}
\newlabel{icarogw:icarogw.cosmologies.w0flatLCDM.dVc_by_dz}{{1.3}{14}{icarogw.cosmologies module}{section*.85}{}}
\newlabel{icarogw:icarogw.cosmologies.w0flatLCDM.dl_at_z}{{1.3}{14}{icarogw.cosmologies module}{section*.86}{}}
\newlabel{icarogw:icarogw.cosmologies.w0flatLCDM.z_at_dl}{{1.3}{14}{icarogw.cosmologies module}{section*.87}{}}
\newlabel{icarogw:icarogw.cosmologies.w0waflatLCDM}{{1.3}{14}{icarogw.cosmologies module}{section*.88}{}}
\newlabel{icarogw:icarogw.cosmologies.w0waflatLCDM.Efunc}{{1.3}{14}{icarogw.cosmologies module}{section*.89}{}}
\newlabel{icarogw:icarogw.cosmologies.w0waflatLCDM.dL_by_dz}{{1.3}{14}{icarogw.cosmologies module}{section*.90}{}}
\newlabel{icarogw:icarogw.cosmologies.w0waflatLCDM.dVc_by_dz}{{1.3}{14}{icarogw.cosmologies module}{section*.91}{}}
\newlabel{icarogw:icarogw.cosmologies.w0waflatLCDM.dl_at_z}{{1.3}{14}{icarogw.cosmologies module}{section*.92}{}}
\newlabel{icarogw:icarogw.cosmologies.w0waflatLCDM.z_at_dl}{{1.3}{14}{icarogw.cosmologies module}{section*.93}{}}
\@writefile{toc}{\contentsline {section}{\numberline {1.4}icarogw.injections module}{15}{section.1.4}\protected@file@percent }
\newlabel{icarogw:module-icarogw.injections}{{1.4}{15}{icarogw.injections module}{section.1.4}{}}
\newlabel{icarogw:icarogw-injections-module}{{1.4}{15}{icarogw.injections module}{section.1.4}{}}
\newlabel{icarogw:icarogw.injections.injections_at_detector}{{1.4}{15}{icarogw.injections module}{section*.94}{}}
\newlabel{icarogw:icarogw.injections.injections_at_detector.expected_number_detection}{{1.4}{15}{icarogw.injections module}{section*.95}{}}
\newlabel{icarogw:icarogw.injections.injections_at_detector.gw_only_selection_effect}{{1.4}{15}{icarogw.injections module}{section*.96}{}}
\newlabel{icarogw:icarogw.injections.injections_at_detector.return_reweighted_injections}{{1.4}{15}{icarogw.injections module}{section*.97}{}}
\newlabel{icarogw:icarogw.injections.injections_at_detector.simulate_moc}{{1.4}{15}{icarogw.injections module}{section*.98}{}}
\newlabel{icarogw:icarogw.injections.injections_at_detector.update_cut}{{1.4}{16}{icarogw.injections module}{section*.99}{}}
\newlabel{icarogw:icarogw.injections.injections_at_source}{{1.4}{16}{icarogw.injections module}{section*.100}{}}
\newlabel{icarogw:icarogw.injections.injections_at_source.expected_number_detection}{{1.4}{16}{icarogw.injections module}{section*.101}{}}
\newlabel{icarogw:icarogw.injections.injections_at_source.gw_only_selection_effect}{{1.4}{16}{icarogw.injections module}{section*.102}{}}
\newlabel{icarogw:icarogw.injections.injections_at_source.return_reweighted_injections}{{1.4}{16}{icarogw.injections module}{section*.103}{}}
\newlabel{icarogw:icarogw.injections.injections_at_source.simulate_moc}{{1.4}{17}{icarogw.injections module}{section*.104}{}}
\newlabel{icarogw:icarogw.injections.injections_at_source.update_cut}{{1.4}{17}{icarogw.injections module}{section*.105}{}}
\@writefile{toc}{\contentsline {section}{\numberline {1.5}icarogw.posterior\_samples module}{17}{section.1.5}\protected@file@percent }
\newlabel{icarogw:module-icarogw.posterior_samples}{{1.5}{17}{icarogw.posterior\_samples module}{section.1.5}{}}
\newlabel{icarogw:icarogw-posterior-samples-module}{{1.5}{17}{icarogw.posterior\_samples module}{section.1.5}{}}
\newlabel{icarogw:icarogw.posterior_samples.posterior_samples}{{1.5}{17}{icarogw.posterior\_samples module}{section*.106}{}}
\newlabel{icarogw:icarogw.posterior_samples.posterior_samples.compute_source_frame_samples}{{1.5}{17}{icarogw.posterior\_samples module}{section*.107}{}}
\newlabel{icarogw:icarogw.posterior_samples.posterior_samples.gather_more_samples}{{1.5}{18}{icarogw.posterior\_samples module}{section*.108}{}}
\newlabel{icarogw:icarogw.posterior_samples.posterior_samples.return_reweighted_samples}{{1.5}{18}{icarogw.posterior\_samples module}{section*.109}{}}
\@writefile{toc}{\contentsline {section}{\numberline {1.6}Module contents}{18}{section.1.6}\protected@file@percent }
\newlabel{icarogw:module-icarogw}{{1.6}{18}{Module contents}{section.1.6}{}}
\newlabel{icarogw:module-contents}{{1.6}{18}{Module contents}{section.1.6}{}}
\@writefile{toc}{\contentsline {chapter}{\numberline {2}Indices and tables}{19}{chapter.2}\protected@file@percent }
\@writefile{lof}{\addvspace {10\p@ }}
\@writefile{lot}{\addvspace {10\p@ }}
\newlabel{index:indices-and-tables}{{2}{19}{Indices and tables}{chapter.2}{}}
\@writefile{toc}{\contentsline {chapter}{Python Module Index}{21}{section*.110}\protected@file@percent }
\@writefile{toc}{\contentsline {chapter}{Index}{23}{section*.111}\protected@file@percent }
\gdef \@abspage@last{29}
